{
	"Now at ": 0,
	"of": 5001
}{
	"Now at ": 10,
	"of": 5001
}{
	"Now at ": 20,
	"of": 5001
}{
	"Now at ": 30,
	"of": 5001
}{
	"Now at ": 40,
	"of": 5001
}{
	"Now at ": 50,
	"of": 5001
}{
	"Now at ": 60,
	"of": 5001
}{
	"Now at ": 70,
	"of": 5001
}{
	"Now at ": 80,
	"of": 5001
}{
	"Now at ": 90,
	"of": 5001
}{
	"Now at ": 100,
	"of": 5001
}{
	"Now at ": 110,
	"of": 5001
}{
	"Now at ": 120,
	"of": 5001
}{
	"Now at ": 130,
	"of": 5001
}{
	"Now at ": 140,
	"of": 5001
}{
	"Now at ": 150,
	"of": 5001
}{
	"Now at ": 160,
	"of": 5001
}{
	"Now at ": 170,
	"of": 5001
}{
	"Now at ": 180,
	"of": 5001
}{
	"Now at ": 190,
	"of": 5001
}{
	"Now at ": 200,
	"of": 5001
}{
	"Now at ": 210,
	"of": 5001
}{
	"Now at ": 220,
	"of": 5001
}{
	"Now at ": 230,
	"of": 5001
}{
	"Now at ": 240,
	"of": 5001
}{
	"Now at ": 250,
	"of": 5001
}{
	"Now at ": 260,
	"of": 5001
}{
	"Now at ": 270,
	"of": 5001
}{
	"Now at ": 280,
	"of": 5001
}{
	"Now at ": 290,
	"of": 5001
}{
	"Now at ": 300,
	"of": 5001
}{
	"Now at ": 310,
	"of": 5001
}{
	"Now at ": 320,
	"of": 5001
}{
	"Now at ": 330,
	"of": 5001
}{
	"Now at ": 340,
	"of": 5001
}{
	"Now at ": 350,
	"of": 5001
}{
	"Now at ": 360,
	"of": 5001
}{
	"Now at ": 370,
	"of": 5001
}{
	"Now at ": 380,
	"of": 5001
}{
	"Now at ": 390,
	"of": 5001
}{
	"Now at ": 400,
	"of": 5001
}{
	"Now at ": 410,
	"of": 5001
}{
	"Now at ": 420,
	"of": 5001
}{
	"Now at ": 430,
	"of": 5001
}{
	"Now at ": 440,
	"of": 5001
}{
	"Now at ": 450,
	"of": 5001
}{
	"Now at ": 460,
	"of": 5001
}{
	"Now at ": 470,
	"of": 5001
}{
	"Now at ": 480,
	"of": 5001
}{
	"Now at ": 490,
	"of": 5001
}{
	"Now at ": 500,
	"of": 5001
}{
	"Now at ": 510,
	"of": 5001
}{
	"Now at ": 520,
	"of": 5001
}{
	"Now at ": 530,
	"of": 5001
}{
	"Now at ": 540,
	"of": 5001
}{
	"Now at ": 550,
	"of": 5001
}{
	"Now at ": 560,
	"of": 5001
}{
	"Now at ": 570,
	"of": 5001
}{
	"Now at ": 580,
	"of": 5001
}{
	"Now at ": 590,
	"of": 5001
}{
	"Now at ": 600,
	"of": 5001
}{
	"Now at ": 610,
	"of": 5001
}{
	"Now at ": 620,
	"of": 5001
}{
	"Now at ": 630,
	"of": 5001
}{
	"Now at ": 640,
	"of": 5001
}{
	"Now at ": 650,
	"of": 5001
}{
	"Now at ": 660,
	"of": 5001
}{
	"Now at ": 670,
	"of": 5001
}{
	"Now at ": 680,
	"of": 5001
}{
	"Now at ": 690,
	"of": 5001
}{
	"Now at ": 700,
	"of": 5001
}{
	"Now at ": 710,
	"of": 5001
}{
	"Now at ": 720,
	"of": 5001
}{
	"Now at ": 730,
	"of": 5001
}{
	"Now at ": 740,
	"of": 5001
}{
	"Now at ": 750,
	"of": 5001
}{
	"Now at ": 760,
	"of": 5001
}{
	"Now at ": 770,
	"of": 5001
}{
	"Now at ": 780,
	"of": 5001
}{
	"Now at ": 790,
	"of": 5001
}{
	"Now at ": 800,
	"of": 5001
}{
	"Now at ": 810,
	"of": 5001
}{
	"Now at ": 820,
	"of": 5001
}{
	"Now at ": 830,
	"of": 5001
}{
	"Now at ": 840,
	"of": 5001
}{
	"Now at ": 850,
	"of": 5001
}{
	"Now at ": 860,
	"of": 5001
}{
	"Now at ": 870,
	"of": 5001
}{
	"Now at ": 880,
	"of": 5001
}{
	"Now at ": 890,
	"of": 5001
}{
	"Now at ": 900,
	"of": 5001
}{
	"Now at ": 910,
	"of": 5001
}{
	"Now at ": 920,
	"of": 5001
}{
	"Now at ": 930,
	"of": 5001
}{
	"Now at ": 940,
	"of": 5001
}{
	"Now at ": 950,
	"of": 5001
}{
	"Now at ": 960,
	"of": 5001
}{
	"Now at ": 970,
	"of": 5001
}{
	"Now at ": 980,
	"of": 5001
}{
	"Now at ": 990,
	"of": 5001
}{
	"Now at ": 1000,
	"of": 5001
}{
	"Now at ": 1010,
	"of": 5001
}{
	"Now at ": 1020,
	"of": 5001
}{
	"Now at ": 1030,
	"of": 5001
}{
	"Now at ": 1040,
	"of": 5001
}{
	"Now at ": 1050,
	"of": 5001
}{
	"Now at ": 1060,
	"of": 5001
}{
	"Now at ": 1070,
	"of": 5001
}{
	"Now at ": 1080,
	"of": 5001
}{
	"Now at ": 1090,
	"of": 5001
}{
	"Now at ": 1100,
	"of": 5001
}{
	"Now at ": 1110,
	"of": 5001
}{
	"Now at ": 1120,
	"of": 5001
}{
	"Now at ": 1130,
	"of": 5001
}{
	"Now at ": 1140,
	"of": 5001
}{
	"Now at ": 1150,
	"of": 5001
}{
	"Now at ": 1160,
	"of": 5001
}{
	"Now at ": 1170,
	"of": 5001
}{
	"Now at ": 1180,
	"of": 5001
}{
	"Now at ": 1190,
	"of": 5001
}{
	"Now at ": 1200,
	"of": 5001
}{
	"Now at ": 1210,
	"of": 5001
}{
	"Now at ": 1220,
	"of": 5001
}{
	"Now at ": 1230,
	"of": 5001
}{
	"Now at ": 1240,
	"of": 5001
}{
	"Now at ": 1250,
	"of": 5001
}{
	"Now at ": 1260,
	"of": 5001
}{
	"Now at ": 1270,
	"of": 5001
}{
	"Now at ": 1280,
	"of": 5001
}{
	"Now at ": 1290,
	"of": 5001
}{
	"Now at ": 1300,
	"of": 5001
}{
	"Now at ": 1310,
	"of": 5001
}{
	"Now at ": 1320,
	"of": 5001
}{
	"Now at ": 1330,
	"of": 5001
}{
	"Now at ": 1340,
	"of": 5001
}{
	"Now at ": 1350,
	"of": 5001
}{
	"Now at ": 1360,
	"of": 5001
}{
	"Now at ": 1370,
	"of": 5001
}{
	"Now at ": 1380,
	"of": 5001
}{
	"Now at ": 1390,
	"of": 5001
}{
	"Now at ": 1400,
	"of": 5001
}{
	"Now at ": 1410,
	"of": 5001
}{
	"Now at ": 1420,
	"of": 5001
}{
	"Now at ": 1430,
	"of": 5001
}{
	"Now at ": 1440,
	"of": 5001
}{
	"Now at ": 1450,
	"of": 5001
}{
	"Now at ": 1460,
	"of": 5001
}{
	"Now at ": 1470,
	"of": 5001
}{
	"Now at ": 1480,
	"of": 5001
}{
	"Now at ": 1490,
	"of": 5001
}{
	"Now at ": 1500,
	"of": 5001
}{
	"Now at ": 1510,
	"of": 5001
}{
	"Now at ": 1520,
	"of": 5001
}{
	"Now at ": 1530,
	"of": 5001
}{
	"Now at ": 1540,
	"of": 5001
}{
	"Now at ": 1550,
	"of": 5001
}{
	"Now at ": 1560,
	"of": 5001
}{
	"Now at ": 1570,
	"of": 5001
}{
	"Now at ": 1580,
	"of": 5001
}{
	"Now at ": 1590,
	"of": 5001
}{
	"Now at ": 1600,
	"of": 5001
}{
	"Now at ": 1610,
	"of": 5001
}{
	"Now at ": 1620,
	"of": 5001
}{
	"Now at ": 1630,
	"of": 5001
}{
	"Now at ": 1640,
	"of": 5001
}{
	"Now at ": 1650,
	"of": 5001
}{
	"Now at ": 1660,
	"of": 5001
}{
	"Now at ": 1670,
	"of": 5001
}{
	"Now at ": 1680,
	"of": 5001
}{
	"Now at ": 1690,
	"of": 5001
}{
	"Now at ": 1700,
	"of": 5001
}{
	"Now at ": 1710,
	"of": 5001
}{
	"Now at ": 1720,
	"of": 5001
}{
	"Now at ": 1730,
	"of": 5001
}{
	"Now at ": 1740,
	"of": 5001
}{
	"Now at ": 1750,
	"of": 5001
}{
	"Now at ": 1760,
	"of": 5001
}{
	"Now at ": 1770,
	"of": 5001
}{
	"Now at ": 1780,
	"of": 5001
}{
	"Now at ": 1790,
	"of": 5001
}{
	"Now at ": 1800,
	"of": 5001
}{
	"Now at ": 1810,
	"of": 5001
}{
	"Now at ": 1820,
	"of": 5001
}{
	"Now at ": 1830,
	"of": 5001
}{
	"Now at ": 1840,
	"of": 5001
}{
	"Now at ": 1850,
	"of": 5001
}{
	"Now at ": 1860,
	"of": 5001
}{
	"Now at ": 1870,
	"of": 5001
}{
	"Now at ": 1880,
	"of": 5001
}{
	"Now at ": 1890,
	"of": 5001
}{
	"Now at ": 1900,
	"of": 5001
}{
	"Now at ": 1910,
	"of": 5001
}{
	"Now at ": 1920,
	"of": 5001
}{
	"Now at ": 1930,
	"of": 5001
}{
	"Now at ": 1940,
	"of": 5001
}{
	"Now at ": 1950,
	"of": 5001
}{
	"Now at ": 1960,
	"of": 5001
}{
	"Now at ": 1970,
	"of": 5001
}{
	"Now at ": 1980,
	"of": 5001
}{
	"Now at ": 1990,
	"of": 5001
}{
	"Now at ": 2000,
	"of": 5001
}{
	"Now at ": 2010,
	"of": 5001
}{
	"Now at ": 2020,
	"of": 5001
}{
	"Now at ": 2030,
	"of": 5001
}{
	"Now at ": 2040,
	"of": 5001
}{
	"Now at ": 2050,
	"of": 5001
}{
	"Now at ": 2060,
	"of": 5001
}{
	"Now at ": 2070,
	"of": 5001
}{
	"Now at ": 2080,
	"of": 5001
}{
	"Now at ": 2090,
	"of": 5001
}{
	"Now at ": 2100,
	"of": 5001
}{
	"Now at ": 2110,
	"of": 5001
}{
	"Now at ": 2120,
	"of": 5001
}{
	"Now at ": 2130,
	"of": 5001
}{
	"Now at ": 2140,
	"of": 5001
}{
	"Now at ": 2150,
	"of": 5001
}{
	"Now at ": 2160,
	"of": 5001
}{
	"Now at ": 2170,
	"of": 5001
}{
	"Now at ": 2180,
	"of": 5001
}{
	"Now at ": 2190,
	"of": 5001
}{
	"Now at ": 2200,
	"of": 5001
}{
	"Now at ": 2210,
	"of": 5001
}{
	"Now at ": 2220,
	"of": 5001
}{
	"Now at ": 2230,
	"of": 5001
}{
	"Now at ": 2240,
	"of": 5001
}{
	"Now at ": 2250,
	"of": 5001
}{
	"Now at ": 2260,
	"of": 5001
}{
	"Now at ": 2270,
	"of": 5001
}{
	"Now at ": 2280,
	"of": 5001
}{
	"Now at ": 2290,
	"of": 5001
}{
	"Now at ": 2300,
	"of": 5001
}{
	"Now at ": 2310,
	"of": 5001
}{
	"Now at ": 2320,
	"of": 5001
}{
	"Now at ": 2330,
	"of": 5001
}{
	"Now at ": 2340,
	"of": 5001
}{
	"Now at ": 2350,
	"of": 5001
}{
	"Now at ": 2360,
	"of": 5001
}{
	"Now at ": 2370,
	"of": 5001
}{
	"Now at ": 2380,
	"of": 5001
}{
	"Now at ": 2390,
	"of": 5001
}{
	"Now at ": 2400,
	"of": 5001
}{
	"Now at ": 2410,
	"of": 5001
}{
	"Now at ": 2420,
	"of": 5001
}{
	"Now at ": 2430,
	"of": 5001
}{
	"Now at ": 2440,
	"of": 5001
}{
	"Now at ": 2450,
	"of": 5001
}{
	"Now at ": 2460,
	"of": 5001
}{
	"Now at ": 2470,
	"of": 5001
}{
	"Now at ": 2480,
	"of": 5001
}{
	"Now at ": 2490,
	"of": 5001
}{
	"Now at ": 2500,
	"of": 5001
}{
	"Now at ": 2510,
	"of": 5001
}{
	"Now at ": 2520,
	"of": 5001
}{
	"Now at ": 2530,
	"of": 5001
}{
	"Now at ": 2540,
	"of": 5001
}{
	"Now at ": 2550,
	"of": 5001
}{
	"Now at ": 2560,
	"of": 5001
}{
	"Now at ": 2570,
	"of": 5001
}{
	"Now at ": 2580,
	"of": 5001
}{
	"Now at ": 2590,
	"of": 5001
}{
	"Now at ": 2600,
	"of": 5001
}{
	"Now at ": 2610,
	"of": 5001
}{
	"Now at ": 2620,
	"of": 5001
}{
	"Now at ": 2630,
	"of": 5001
}{
	"Now at ": 2640,
	"of": 5001
}{
	"Now at ": 2650,
	"of": 5001
}{
	"Now at ": 2660,
	"of": 5001
}{
	"Now at ": 2670,
	"of": 5001
}{
	"Now at ": 2680,
	"of": 5001
}{
	"Now at ": 2690,
	"of": 5001
}{
	"Now at ": 2700,
	"of": 5001
}{
	"Now at ": 2710,
	"of": 5001
}{
	"Now at ": 2720,
	"of": 5001
}{
	"Now at ": 2730,
	"of": 5001
}{
	"Now at ": 2740,
	"of": 5001
}{
	"Now at ": 2750,
	"of": 5001
}{
	"Now at ": 2760,
	"of": 5001
}{
	"Now at ": 2770,
	"of": 5001
}{
	"Now at ": 2780,
	"of": 5001
}{
	"Now at ": 2790,
	"of": 5001
}{
	"Now at ": 2800,
	"of": 5001
}{
	"Now at ": 2810,
	"of": 5001
}{
	"Now at ": 2820,
	"of": 5001
}{
	"Now at ": 2830,
	"of": 5001
}{
	"Now at ": 2840,
	"of": 5001
}{
	"Now at ": 2850,
	"of": 5001
}{
	"Now at ": 2860,
	"of": 5001
}{
	"Now at ": 2870,
	"of": 5001
}{
	"Now at ": 2880,
	"of": 5001
}{
	"Now at ": 2890,
	"of": 5001
}{
	"Now at ": 2900,
	"of": 5001
}{
	"Now at ": 2910,
	"of": 5001
}{
	"Now at ": 2920,
	"of": 5001
}{
	"Now at ": 2930,
	"of": 5001
}{
	"Now at ": 2940,
	"of": 5001
}{
	"Now at ": 2950,
	"of": 5001
}{
	"Now at ": 2960,
	"of": 5001
}{
	"Now at ": 2970,
	"of": 5001
}{
	"Now at ": 2980,
	"of": 5001
}{
	"Now at ": 2990,
	"of": 5001
}{
	"Now at ": 3000,
	"of": 5001
}{
	"Now at ": 3010,
	"of": 5001
}{
	"Now at ": 3020,
	"of": 5001
}{
	"Now at ": 3030,
	"of": 5001
}{
	"Now at ": 3040,
	"of": 5001
}{
	"Now at ": 3050,
	"of": 5001
}{
	"Now at ": 3060,
	"of": 5001
}{
	"Now at ": 3070,
	"of": 5001
}{
	"Now at ": 3080,
	"of": 5001
}{
	"Now at ": 3090,
	"of": 5001
}{
	"Now at ": 3100,
	"of": 5001
}{
	"Now at ": 3110,
	"of": 5001
}{
	"Now at ": 3120,
	"of": 5001
}{
	"Now at ": 3130,
	"of": 5001
}{
	"Now at ": 3140,
	"of": 5001
}{
	"Now at ": 3150,
	"of": 5001
}{
	"Now at ": 3160,
	"of": 5001
}{
	"Now at ": 3170,
	"of": 5001
}{
	"Now at ": 3180,
	"of": 5001
}{
	"Now at ": 3190,
	"of": 5001
}{
	"Now at ": 3200,
	"of": 5001
}{
	"Now at ": 3210,
	"of": 5001
}{
	"Now at ": 3220,
	"of": 5001
}{
	"Now at ": 3230,
	"of": 5001
}{
	"Now at ": 3240,
	"of": 5001
}{
	"Now at ": 3250,
	"of": 5001
}{
	"Now at ": 3260,
	"of": 5001
}{
	"Now at ": 3270,
	"of": 5001
}{
	"Now at ": 3280,
	"of": 5001
}{
	"Now at ": 3290,
	"of": 5001
}{
	"Now at ": 3300,
	"of": 5001
}{
	"Now at ": 3310,
	"of": 5001
}{
	"Now at ": 3320,
	"of": 5001
}{
	"Now at ": 3330,
	"of": 5001
}{
	"Now at ": 3340,
	"of": 5001
}{
	"Now at ": 3350,
	"of": 5001
}{
	"Now at ": 3360,
	"of": 5001
}{
	"Now at ": 3370,
	"of": 5001
}{
	"Now at ": 3380,
	"of": 5001
}{
	"Now at ": 3390,
	"of": 5001
}{
	"Now at ": 3400,
	"of": 5001
}{
	"Now at ": 3410,
	"of": 5001
}{
	"Now at ": 3420,
	"of": 5001
}{
	"Now at ": 3430,
	"of": 5001
}{
	"Now at ": 3440,
	"of": 5001
}{
	"Now at ": 3450,
	"of": 5001
}{
	"Now at ": 3460,
	"of": 5001
}{
	"Now at ": 3470,
	"of": 5001
}{
	"Now at ": 3480,
	"of": 5001
}{
	"Now at ": 3490,
	"of": 5001
}{
	"Now at ": 3500,
	"of": 5001
}{
	"Now at ": 3510,
	"of": 5001
}{
	"Now at ": 3520,
	"of": 5001
}{
	"Now at ": 3530,
	"of": 5001
}{
	"Now at ": 3540,
	"of": 5001
}{
	"Now at ": 3550,
	"of": 5001
}{
	"Now at ": 3560,
	"of": 5001
}{
	"Now at ": 3570,
	"of": 5001
}{
	"Now at ": 3580,
	"of": 5001
}{
	"Now at ": 3590,
	"of": 5001
}{
	"Now at ": 3600,
	"of": 5001
}{
	"Now at ": 3610,
	"of": 5001
}{
	"Now at ": 3620,
	"of": 5001
}{
	"Now at ": 3630,
	"of": 5001
}{
	"Now at ": 3640,
	"of": 5001
}{
	"Now at ": 3650,
	"of": 5001
}{
	"Now at ": 3660,
	"of": 5001
}{
	"Now at ": 3670,
	"of": 5001
}{
	"Now at ": 3680,
	"of": 5001
}{
	"Now at ": 3690,
	"of": 5001
}{
	"Now at ": 3700,
	"of": 5001
}{
	"Now at ": 3710,
	"of": 5001
}{
	"Now at ": 3720,
	"of": 5001
}{
	"Now at ": 3730,
	"of": 5001
}{
	"Now at ": 3740,
	"of": 5001
}{
	"Now at ": 3750,
	"of": 5001
}{
	"Now at ": 3760,
	"of": 5001
}{
	"Now at ": 3770,
	"of": 5001
}{
	"Now at ": 3780,
	"of": 5001
}{
	"Now at ": 3790,
	"of": 5001
}{
	"Now at ": 3800,
	"of": 5001
}{
	"Now at ": 3810,
	"of": 5001
}{
	"Now at ": 3820,
	"of": 5001
}{
	"Now at ": 3830,
	"of": 5001
}{
	"Now at ": 3840,
	"of": 5001
}{
	"Now at ": 3850,
	"of": 5001
}{
	"Now at ": 3860,
	"of": 5001
}{
	"Now at ": 3870,
	"of": 5001
}{
	"Now at ": 3880,
	"of": 5001
}{
	"Now at ": 3890,
	"of": 5001
}{
	"Now at ": 3900,
	"of": 5001
}{
	"Now at ": 3910,
	"of": 5001
}{
	"Now at ": 3920,
	"of": 5001
}{
	"Now at ": 3930,
	"of": 5001
}{
	"Now at ": 3940,
	"of": 5001
}{
	"Now at ": 3950,
	"of": 5001
}{
	"Now at ": 3960,
	"of": 5001
}{
	"Now at ": 3970,
	"of": 5001
}{
	"Now at ": 3980,
	"of": 5001
}{
	"Now at ": 3990,
	"of": 5001
}{
	"Now at ": 4000,
	"of": 5001
}{
	"Now at ": 4010,
	"of": 5001
}{
	"Now at ": 4020,
	"of": 5001
}{
	"Now at ": 4030,
	"of": 5001
}{
	"Now at ": 4040,
	"of": 5001
}{
	"Now at ": 4050,
	"of": 5001
}{
	"Now at ": 4060,
	"of": 5001
}{
	"Now at ": 4070,
	"of": 5001
}{
	"Now at ": 4080,
	"of": 5001
}{
	"Now at ": 4090,
	"of": 5001
}{
	"Now at ": 4100,
	"of": 5001
}{
	"Now at ": 4110,
	"of": 5001
}{
	"Now at ": 4120,
	"of": 5001
}{
	"Now at ": 4130,
	"of": 5001
}{
	"Now at ": 4140,
	"of": 5001
}{
	"Now at ": 4150,
	"of": 5001
}{
	"Now at ": 4160,
	"of": 5001
}{
	"Now at ": 4170,
	"of": 5001
}{
	"Now at ": 4180,
	"of": 5001
}{
	"Now at ": 4190,
	"of": 5001
}{
	"Now at ": 4200,
	"of": 5001
}{
	"Now at ": 4210,
	"of": 5001
}{
	"Now at ": 4220,
	"of": 5001
}{
	"Now at ": 4230,
	"of": 5001
}{
	"Now at ": 4240,
	"of": 5001
}{
	"Now at ": 4250,
	"of": 5001
}{
	"Now at ": 4260,
	"of": 5001
}{
	"Now at ": 4270,
	"of": 5001
}{
	"Now at ": 4280,
	"of": 5001
}{
	"Now at ": 4290,
	"of": 5001
}{
	"Now at ": 4300,
	"of": 5001
}{
	"Now at ": 4310,
	"of": 5001
}{
	"Now at ": 4320,
	"of": 5001
}{
	"Now at ": 4330,
	"of": 5001
}{
	"Now at ": 4340,
	"of": 5001
}{
	"Now at ": 4350,
	"of": 5001
}{
	"Now at ": 4360,
	"of": 5001
}{
	"Now at ": 4370,
	"of": 5001
}{
	"Now at ": 4380,
	"of": 5001
}{
	"Now at ": 4390,
	"of": 5001
}{
	"Now at ": 4400,
	"of": 5001
}{
	"Now at ": 4410,
	"of": 5001
}{
	"Now at ": 4420,
	"of": 5001
}{
	"Now at ": 4430,
	"of": 5001
}{
	"Now at ": 4440,
	"of": 5001
}{
	"Now at ": 4450,
	"of": 5001
}{
	"Now at ": 4460,
	"of": 5001
}{
	"Now at ": 4470,
	"of": 5001
}{
	"Now at ": 4480,
	"of": 5001
}{
	"Now at ": 4490,
	"of": 5001
}{
	"Now at ": 4500,
	"of": 5001
}{
	"Now at ": 4510,
	"of": 5001
}{
	"Now at ": 4520,
	"of": 5001
}{
	"Now at ": 4530,
	"of": 5001
}{
	"Now at ": 4540,
	"of": 5001
}{
	"Now at ": 4550,
	"of": 5001
}{
	"Now at ": 4560,
	"of": 5001
}{
	"Now at ": 4570,
	"of": 5001
}{
	"Now at ": 4580,
	"of": 5001
}{
	"Now at ": 4590,
	"of": 5001
}{
	"Now at ": 4600,
	"of": 5001
}{
	"Now at ": 4610,
	"of": 5001
}{
	"Now at ": 4620,
	"of": 5001
}{
	"Now at ": 4630,
	"of": 5001
}{
	"Now at ": 4640,
	"of": 5001
}{
	"Now at ": 4650,
	"of": 5001
}{
	"Now at ": 4660,
	"of": 5001
}{
	"Now at ": 4670,
	"of": 5001
}{
	"Now at ": 4680,
	"of": 5001
}{
	"Now at ": 4690,
	"of": 5001
}{
	"Now at ": 4700,
	"of": 5001
}{
	"Now at ": 4710,
	"of": 5001
}{
	"Now at ": 4720,
	"of": 5001
}{
	"Now at ": 4730,
	"of": 5001
}{
	"Now at ": 4740,
	"of": 5001
}{
	"Now at ": 4750,
	"of": 5001
}{
	"Now at ": 4760,
	"of": 5001
}{
	"Now at ": 4770,
	"of": 5001
}{
	"Now at ": 4780,
	"of": 5001
}{
	"Now at ": 4790,
	"of": 5001
}{
	"Now at ": 4800,
	"of": 5001
}{
	"Now at ": 4810,
	"of": 5001
}{
	"Now at ": 4820,
	"of": 5001
}{
	"Now at ": 4830,
	"of": 5001
}{
	"Now at ": 4840,
	"of": 5001
}{
	"Now at ": 4850,
	"of": 5001
}{
	"Now at ": 4860,
	"of": 5001
}{
	"Now at ": 4870,
	"of": 5001
}{
	"Now at ": 4880,
	"of": 5001
}{
	"Now at ": 4890,
	"of": 5001
}{
	"Now at ": 4900,
	"of": 5001
}{
	"Now at ": 4910,
	"of": 5001
}{
	"Now at ": 4920,
	"of": 5001
}{
	"Now at ": 4930,
	"of": 5001
}{
	"Now at ": 4940,
	"of": 5001
}{
	"Now at ": 4950,
	"of": 5001
}{
	"Now at ": 4960,
	"of": 5001
}{
	"Now at ": 4970,
	"of": 5001
}{
	"Now at ": 4980,
	"of": 5001
}{
	"Now at ": 4990,
	"of": 5001
}{
	"Now at ": 5000,
	"of": 5001
}