0	0.13375	problems life find problem today found answer answers purpose face living questions meaning solution solve made real present wisdom seeking 
1	0.074	forgive judge mercy forgiveness judgment father evil men spirit eye people love offended brother bitterness savior trespasses anger woman brothers 
2	0.0785	clean television pornography evil thoughts language standards music dress good movies young behavior magazines entertainment internet avoid drugs speak media 
3	0.1045	sin moral chastity sex adultery sexual youth virtue laws evil immorality destroy law wrong physical standards commit sins abortion lust 
4	0.01295	work great till stop truth country purposes accomplished boldly ear penetrated sounded jehovah continent independent nobly standard progressing visited nehemiah 
5	0.05801	path narrow life straight hold rod gate iron strait temptations temptation paths leads lead tree fast leadeth lost fruit destruction 
6	0.25254	lord’s family world families personal savior faithful god’s children challenges provide single commitment savior’s strengthen blessed faith support work righteous 
7	0.03838	home homes delinquency crime percent youth child parents juvenile nation influence character states discipline responsibility times young broken school conditions 
8	0.20696	people world father men live homes children heavenly today good find love lives blessing grateful blessed happy bless enjoy opportunity 
9	0.18519	heart gift sacred soul beautiful hearts precious special life time love pure gratitude light thought deep language full thoughts gifts 
10	0.20627	son father world heaven men earth man begotten redeemer things savior made holy hath witness john behold power beloved voice 
11	0.10426	prophets revelation prophet day revelations modern men living people revealed ancient divine today reveal received speak apostles moses testify seers 
12	0.38064	lord commandments live life blessings lives living world day things time keeping eternal made gave give follow receive blessed word 
13	0.07575	light darkness truth walk oil dark spiritual shine lamps sun night eyes works brighter virgins foolish lights bridegroom glorify wise 
14	0.24945	men man divine purpose world fact mans earth statement human existence accept lords today true history bring law modern heaven 
15	0.33058	important personal principles individual responsibility person proper lives importance progress ways action effort individuals direction process effective challenge give greater 
16	0.18996	holy spirit ghost power gift things receive truth lord received spiritual gifts mind heart revelation guide knowledge promise companionship witness 
17	0.22988	great lord work wonderful people speak faith lives words years thing sacred thousands remarkable ago eternal forward spoken brethren live 
18	0.18027	don’t things can’t it’s time make back people didn’t isn’t give thing talk remember doesn’t important put i’m happen lord’s 
19	0.06162	money debt pay financial income buy live cost high dollars credit avoid paid free interest budget save obligations debts savings 
20	0.12096	satan evil devil good destroy righteousness day truth forces adversary world influence powers opposition satan’s side enemy avoid wicked put 
21	0.11148	people business public system government material social law state make society human programs property order facts communities large education economic 
22	0.07688	words remember declared lives years provided lake salt provide john monson joy inspired precious divine asked share wrote frequently life 
23	0.03642	elijah fathers children joseph lord prophet hearts great keys smith coming turn earth sealing malachi priesthood dreadful dispensation elias time 
24	0.02728	thee prison man gave king samaritan stranger savior elisha naaman naked good clothed sick thirsty brother passed fell drink care 
25	0.04424	team game ball play coach life football basketball games great line win run school field race baseball year playing players 
26	0.06893	poor lord church needy welfare give people lord’s care provide sick relief substance hungry rich order impart law society storehouse 
27	0.35179	things man words doctrine spirit word revelation understand knowledge covenants taught statement scriptures section behold understanding hath meaning revealed means 
28	0.07146	food family members employment provide health basic families supply prepared care resources church job skills people preparedness counsel clothing needed 
29	0.03699	sheep lost shepherd flock fold feed find back lambs shepherds true souls good bring lamb search follow lose ninety leave 
30	0.22595	love loved savior children loving kindness feel words friend kind loves friends compassion true heart show concern acts follow feelings 
31	0.29076	felt knew remember time love years feel learned asked life young wanted night began didn’t home thought experience morning needed 
32	0.08037	man image created father eternal divine body nature spirit flesh creation worship human personal likeness form attributes creator physical personality 
33	0.03529	thy priesthood dominion virtue holy righteousness heaven presence authority persuasion kindness exercise gentleness soul ghost confidence doctrine unfeigned meekness companion 
34	0.19629	principles gospel teachings living live taught world principle lives truth true standards life today power influence people faith moral conduct 
35	0.02537	dad home father mother mom family brown dads daddy jones bell school job park i’ll craig dad’s sunday hero lazarus 
36	0.05562	world lord prophets words prophet work men things holy marvelous great day read coming scriptures isaiah heaven statement days today 
37	0.01605	widow widows elijah meal fatherless oil city word food cast james undefiled barrel unspotted affliction visit began cruse religion eat 
38	0.02533	wisdom treasures word health knowledge promise hidden body saints remember obedience weary run faint walk destroying promises bones walking great 
39	0.19351	earth day heaven kingdom time coming times gospel great dispensation made restoration angel world fulness years prophets heavens nations holy 
40	0.05407	members church appreciation service young express morning hearts mckay bless choir gratitude hear workers fellow david expressed make word authorities 
41	0.33322	time life day make things work today future lives learn prepare years good part preparation opportunity important opportunities wise long 
42	0.14985	joseph smith prophet hyrum saints years man death fielding life knew lived history joseph’s brother called jail vision persecution calling 
43	0.01335	vineyard son servants parable found hath brother prodigal enemy part thy lost eat work younger tower hired bill merry compassion 
44	0.14963	life spirit death body resurrection mortal eternal world bodies live spirits glory die flesh mortality born day dead earth physical 
45	0.13652	sea water storm long ship wind world ocean boat night days morning cold river waves ground terrible future safe waters 
46	0.43512	life hope lives give strength feel peace comfort fear day time find times promise words good bring heart hearts death 
47	0.06311	covenants covenant made make baptism promise promises sacred keeping ordinances commandments blessings remember people enter priesthood stand entered sacrament everlasting 
48	0.01857	virtue world virtuous young holy pure standards holiness arise standard worthy purity personal shine beautiful stand mountain believers moral beauty 
49	0.19857	years year hundred twenty percent ago million thousand fifty ten thirty number age forty half today people made states total 
50	0.10251	quorum duty quorums priesthood responsibility presidency president brethren elders lord calling duties work seventies high priests presidents seventy office responsibilities 
51	0.12105	war world men nations power battle human peace fear enemies army fight conflict forces death lost destruction nation hate wars 
52	0.08807	agency choose free make choice good choices act decisions freedom evil decision exercise life follow wrong making consequences chose death 
53	0.39738	long personal means place sense order common individual real amen process beginning end simply surely full reasons individuals fully major 
54	0.06122	sacrifice rich man give love wealth young riches sacrifices life possessions poor asked worldly money build today giving lose taught 
55	0.30403	church time give matter lord speak fact general set call subject part position kind point hold talk question matters pray 
56	0.13383	church stake program priesthood presidency general leaders president work twelve council committee organization meeting organizations presidents activities members auxiliary ward 
57	0.17301	lord people day earth days men behold world wicked hearts commandments voice children righteous warning inhabitants wickedness wherefore cometh time 
58	0.0902	president hinckley gordon elder nov conference young year years report oct monson packer apr quoted sister day boyd june thomas 
59	0.04589	i’m i’ve it’s year don’t mother we’re that’s letter asked wrote bear hands you’ll imagine i’d you’re he’s live i’ll 
60	0.12287	resurrection death life disciples mary dead tomb apostles easter savior cross risen body day world jerusalem hands crucifixion resurrected crucified 
61	0.05572	welfare work program plan principles projects production people project principle bishops commodities labor assistance care bread system services industries deseret 
62	0.40924	great made years experience mind days called man found thought occasion ago morning place recall bear past experiences finally asked 
63	0.08132	bible testament book scriptures scripture word holy books writings times ancient years language modern english translated written great mormon price 
64	0.02145	services welfare area council councils temporal local priesthood social leaders planning members resource affairs system committee region problems bishopric matters 
65	0.0708	spiritual things spiritually temporal spirituality security material natural struggle attention turn side pay carnal simply minded trust ignore energy rid 
66	0.09974	temple temples house blessings ordinances sacred lord worthy holy place built build building day eternal receive saints enter covenants dedication 
67	0.02792	peter savior thou follow feed fish john simon nets saith love net sheep knowest thee lovest fishing fishers disciples galilee 
68	0.02395	priesthood receiveth covenant receive lord father oath magnify calling hath faithful magnifying received melchizedek whoso callings give elect sanctified priesthoods 
69	0.17581	service serve call called serving time faithful served calling sacrifice years callings calls good asked give lord’s opportunity servant fellow 
70	0.12074	brother elder home meeting morning give left back time richard gave years sunday speak romney note evans months asked marion 
71	0.14206	mother children child family year home hospital boy girl baby blessing woman parents young daughter father loved care blessed arms 
72	0.13802	power priesthood authority keys church earth ordinances lord powers men hold holy called ordained order kingdom act held conferred john 
73	0.0453	war men service military young home army officer servicemen armed soldiers boys country letter training vietnam soldier battle duty words 
74	0.0346	words world history faith divine america literature wrote seventy day seventies religious religion holy good beauty written house ideals columbus 
75	0.09185	church apostles saints christian gospel paul churches savior called people unity teachings taught ministry apostasy doctrines organization restoration doctrine restored 
76	0.18982	children parents teach child home taught mother love responsibility father family teaching mothers homes parent fathers years son youth walk 
77	0.01788	things lovers paul good natural affection times disobedient scriptures perilous praise real likewise unholy pleasures godliness covetous individuals sisters brothers 
78	0.164	life man world human soul individual spiritual nature divine physical makes sense real truth control ideal means character spirit greatest 
79	0.17205	missionary mission missionaries work young missions gospel time field full serve lord call president service great elder teach message called 
80	0.03669	foundation house rock build built yoke rest winds beat burden floods laden fall souls lowly doeth labour heavy rain easy 
81	0.22467	father heavenly son savior time taught father’s understand great eternal return important remember earth world family prepared back knew presence 
82	0.08635	joy happiness good happy gospel father find rejoice bring true things brings misery pleasure state life cheer family gladness path 
83	0.09857	good control behavior discipline anger attitude actions wrong character person positive attitudes negative wife conduct habits respect bad angry temper 
84	0.18801	kingdom eternal life glory receive celestial exaltation lord gospel man heaven salvation world enter end things order eternity obtain holy 
85	0.16395	life happiness eternal father character principles peace live commandments lives savior growth purpose faith spiritual beloved love mind development heaven 
86	0.10366	moral world society people values morality public generation social recently modern integrity america good homes crime civilization religious immorality growing 
87	0.055	dead work ordinances earth salvation living made temple temples gospel children people ancestors performed ordinance died vicarious opportunity baptism accept 
88	0.12507	question asked answer questions answered answers story explained replied friend interview told called reply conversation test day time ago talked 
89	0.06771	peace world hearts contention earth righteousness savior bring give spirit prince heart unity troubled leave message harmony follow mind brings 
90	0.05925	thou peter heaven art man thee john son answered father savior living asked disciples simon saith born flesh kingdom blessed 
91	0.11296	faith things works trust strong fear hope evidence confidence future exercise lives knowledge miracles doubt miracle dead knew belief increase 
92	0.02398	feet rope boy bar head high big trip mike miles set started edge physical track minutes legs higher jump hole 
93	0.02611	king daniel dream kingdom stone found babylon gold kings silver nebuchadnezzar set kingdoms king’s dreams lions iron brass find interpretation 
94	0.0414	price kingdom talents soul pearl savior parable means master received talent worth heaven disciples disciple labor exchange told servant gave 
95	0.18085	family home families homes children evening members parents activities time church important gospel make unit special evenings place responsibility strengthen 
96	0.18203	plan life eternal children god’s divine great earth salvation heavenly father purpose happiness scriptures lord’s mortal man gift sacred heaven 
97	0.36742	day hand door long eyes stood tears turned ago looked room heart left walked words face son moment city found 
98	0.05081	tobacco liquor alcohol drink smoking wisdom drugs word drinking cigarette health smoke habit people alcoholic coffee cigarettes tea drug evils 
99	0.03808	blessing blessings abraham patriarchal blessed patriarch receive isaac jacob promises received faithful bless seed israel promised lineage give family made 
100	0.11356	law obedience laws commandments obey blessings obedient blessing predicated disobedience learn righteousness peace things obtain command principle principles justice obeyed 
101	0.09082	adam lord earth eve moses abraham time great world beginning plan father garden children man eden made estate fall gave 
102	0.0502	charity love hope pure patience heart virtue kindness things godliness filled paul apostle divine temperance kind attributes brotherly hearts perfect 
103	0.02582	flight plane air flying pilot airplane fly bird birds training jet crew wings honor aircraft force hold emergency planes matter 
104	0.20656	prayer pray father lord prayers heaven prayed faith answer praying answered spirit day seek power words humble daily offered desire 
105	0.21708	work home small time house money day found put long living brought make hard back large days working clean clothes 
106	0.2699	great men spirit work brethren lord hearts faith souls give power pray testimony people man bring women word inspiration humbly 
107	0.08779	salvation men eternal spirit lord holy things life true righteousness saints father gain smith word hope perfect voice forward commandments 
108	0.08015	teacher teach teaching teachers taught school class gospel lesson lessons sunday learn learning primary spirit principles classroom leaders students doctrine 
109	0.05524	harvest seeds fruit trees plant roots seed wheat soil planted ground grow reap sow garden field fell root gardens branches 
110	0.06809	journey follow road truth home path walk heavenly friends back return prayer pathway destination wise apostle feet life’s ago turn 
111	0.04388	water life thirst living hunger bread drink waters give famine spiritual woman filled words food lives souls found hungry stream 
112	0.17004	church members gospel member missionaries people friends baptized share asked brothers active invite teach baptism missionary taught converts saints meetings 
113	0.01288	indian indians lamanites people traditions white lamanite ancient navajo america quiché mexico culture american tradition ancestors maya barry nephites reservation 
114	0.05917	tithing lord pay tithes law blessings offerings heaven blessing paying windows tithe paid payment faith full saith tenth open money 
115	0.30637	man young boy church told father men president boys asked heard thought story called meeting home mission bishop back brother 
116	0.10203	work perfect goal commitment progress success goals perfection achieve effort step challenge forward strive reach failure requires achievement heaven develop 
117	0.02919	people move sign play red angeles judge los group hour building big music interesting played knew tune piano string reading 
118	0.25944	lord prophet counsel president words follow people man smith joseph word church voice give today prophets inspired servants called hear 
119	0.03359	picture bridge fair pavilion painting living pictures beautiful show statue painted visitors program shown millions inspired worlds artist heavenly york 
120	0.20254	man men true good power evil strength desire things duty thoughts mind world heart body spirit make church clean young 
121	0.05485	amp alma john matt mosiah emphasis added joseph moses luke moro smith hinckley acts taught holy mark james cor gen 
122	0.31372	gospel world truth lord earth day church message great people work salvation restored men kingdom power days preach saints true 
123	0.36792	scriptures learn spirit spiritual heart lord study lives gospel things taught teach feel faith personal power hearts experience seek children 
124	0.04476	humble pride child humility natural simple heart king meek submit doth submissive man benjamin full hearts proud meekness filled enemy 
125	0.04458	alma healing pain suffering atonement son heal pains power joy soul people mercy spiritual physical burdens behold healed experience guilt 
126	0.16224	president smith mckay joseph brigham elder george young david brother twelve grant woodruff conference clark john wilford prophet richards heber 
127	0.28761	church day saints members work world zion lord great stakes membership people responsibility leaders faithful leadership kingdom organized today bless 
128	0.00834	line gambling doers thorns rose lily hearers shelley knees thorn golden twig feeble ticket james word maka hawthorn beauty poker 
129	0.04747	earth man space created stars sun worlds power moon heavens glory moses number universe mine creation creator creations star pass 
130	0.04832	south america brazil africa mexico work area north countries missionaries people peru spanish argentina land chile central latin asia canada 
131	0.10191	baptism holy ghost baptized gospel sins faith repentance gift remission hands water ordinances day john repent receive laying immersion son 
132	0.06815	doctrine covenants nephi savior monson matthew thomas alma father john atonement faith mosiah savior’s luke moroni president taught lord’s emphasis 
133	0.10442	young friends good make stand friend courage made strong day trust decision live follow difficult high pray places standards important 
134	0.04558	israel lord moses david samuel egypt king saul pharaoh israelites hand goliath joshua land remember armies years solomon philistine stones 
135	0.1166	truth church faith day doctrine doctrines religious true members restored saints leaders mankind spiritual truths beliefs declare important history belief 
136	0.14265	priesthood aaronic brethren men tonight melchizedek hold man holders responsibility young worthy priest power deacon lord blessing ordained boys bearers 
137	0.06676	government united constitution states rights men principles land law political laws country state order established washington nation wise property free 
138	0.18073	thou thy thee lord shalt hast thine art things heart hath son give wilt words make hand earth full land 
139	0.08639	land people lord israel house zion prophet jerusalem nations jews brought promised gentiles america prophets fulfilled promise jacob nation mountains 
140	0.03147	god’s brothers mortal sisters human atonement including instance special needed spiritual christ’s amid discipleship finally fully tender mercies moment consecration 
141	0.09241	marriage wife husband love married children family divorce woman man home temple marriages eternity sacred happy marry wives young husbands 
142	0.09312	saints pioneers young brigham valley pioneer nauvoo salt lake early west great missouri faith winter day company journey plains miles 
143	0.09412	knowledge truth wisdom learning seek intelligence education science things study faith life light search learned mind scientific learn found human 
144	0.11776	nephi behold lord great words father lehi pass heard voice nephites commanded scriptures record mormon blessed wherefore prophets children book 
145	0.09239	respect loyalty strength honor understanding loyal wisdom greater unity virtue pride confidence devotion integrity measure long appreciation friends success proud 
146	0.059	society relief sisters women sister visiting organization president work meetings priesthood charity meeting part service smith ward woman single sisterhood 
147	0.08213	joseph vision smith prophet light son appeared brightness standing grove personages power james sun boy head description day calling glory 
148	0.07736	school university students education young college high student schools seminary brigham educational institute utah state study youth program learning religion 
149	0.09026	sing music song choir tabernacle singing sang hymn hymns building sung beautiful hall stage songs drama chorus organ words play 
150	0.06808	freedom nation america land people liberty free american country communism nations great government states today power communist political fathers choice 
151	0.04439	day sabbath thy lord shalt thou holy sunday commandments remember days commandment worship rest house unspotted israel seventh observance sacraments 
152	0.05596	love thy commandment thou shalt commandments law great neighbor heart soul mind thyself lord neighbors neighbour heaven gave master live 
153	0.08032	man hand blind sick hands healed walk master miracles made called healing eyes miracle hear dead lame sight thy feet 
154	0.11849	church city salt lake people mormon day states world united mormons saints utah york california ago read state today true 
155	0.05624	honest integrity honesty good true honor virtuous truth lie character dishonesty things moral business men dishonest virtues article benevolent chaste 
156	0.10996	repentance sins sin lord repent forgiveness soul forgiven forgive transgression clean mercy back remember mistakes sorrow behold justice repented confess 
157	0.05121	boys girls school sunday church good age mutual boy youth schools association group girl organizations women groups improvement organization program 
158	0.14691	church building time year members world area people dedicated women service buildings number areas continue years program efforts construction center 
159	0.01438	selfishness golden rule selfish labor savor workers greed human country union fellow unions conditions war answer groups troubles desire price 
160	0.14439	church president twelve presidency benson apostles quorum members ezra taft prophet sustain called sustained years leaders general office council counselors 
161	0.03013	horse tree horses cows fill farm buggy cattle wedge cut years trees hay ground times cow reservoirs john big line 
162	0.15523	conference general heard spirit morning session great tabernacle conferences messages radio sessions message television world authorities meeting listened homes attend 
163	0.11473	bishop ward home church stake bishops teachers members priesthood member visit teaching leaders meeting quorum active responsibility activity bishopric teacher 
164	0.09713	joseph lord church smith prophet oliver revelation great john gospel cowdery time years world son young received marvelous days appeared 
165	0.0266	food clothing brother suffering good wagon relief george red homes thousands supplies died patton earthquake mud send jones potatoes gratitude 
166	0.01063	pageant bank story money lifeline big fellow notes corn mistletoe bonds blue york stop palmyra lyman hill chicago calgary dear 
167	0.13228	read book mormon reading words scriptures great found day books chapter find study written scripture word verse works make pages 
168	0.02483	fast fasting offering day prayer food poor principle offerings saints month meals cry meeting blessings bread days generous house spring 
169	0.03123	fruit tree good seed word alma fruits behold desire grow nourish place planted cast people bring begin thereof bringeth beginneth 
170	0.41293	sisters love brothers grateful great blessings lord good gospel gratitude express lives church wonderful bless today pray appreciation life beloved 
171	0.04803	change king conversion converted born changed people hearts mighty alma ammon benjamin mosiah sons gospel process state spiritually lamanites brethren 
172	0.10599	land people city great made build place country built valley homes cities history high places desert beautiful left long mountains 
173	0.28785	testimony witness true bear prophet testimonies savior joseph church lives gospel living smith today father knowledge son testify words people 
174	0.10209	father fathers sons mother son children mothers daughters wives wife honor husbands family bless put head daughter influence kind worthy 
175	0.25577	years wife family sister ago time home children husband temple received mission lives day church married couple visit stake beautiful 
176	0.06782	religion christian religious world christianity good christians friends worship belief concept hope make practice brotherhood theology fellow word article liberty 
177	0.08173	voice hear listen heard voices speak small words fire message sound find open hearing opened listening ears messages communication learn 
178	0.00535	version text king james revised note greek revisions versions mark ancient doubt great record antony revision add standard authorities inspired 
179	0.07993	dont didnt people back isnt mckay talk wonderful president kind wouldnt thinking doesnt put lords give ago talking man hear 
180	0.06733	sacrament meeting sacred remember spirit partake reverence worship meetings bread sunday holy attend lord savior ordinance spiritual table covenants blessed 
181	0.03479	family history records temple names information ancestors record generations generation work research members genealogical histories grandfather computer ordinances technology historical 
182	0.0888	car road train back driver side drive miles highway drove school stopped bus area ride driving follow cars top distance 
183	0.49926	people time things great brethren made day thing read make thought remember sisters conference back long part good told put 
184	0.03504	paul saul knew thou apostle lord timothy vision damascus heard deny voice persecuted peter agrippa hath preach persecutest angel persecute 
185	0.12141	atonement savior sins father blood son grace death sacrifice redeemer life repent men suffering mercy saved world power suffer sin 
186	0.04113	zealand islands japan people pacific missionaries mission australia japanese south korea island saints hawaii samoa tonga president philippines met language 
187	0.19417	lord trust difficult receive make understand feel capacity find worthy personal guidance decisions desire happiness recognize overcome essential path divine 
188	0.01798	children abuse heaven kingdom depth primary honors whoso joys past hanged offend drowned enter neck millstone innocence parent daddy adults 
189	0.0779	false warned master hell warning warn leaders devil deceived souls lead beware deceive devils danger man cast signs wicked ways 
190	0.00924	secret magazine news chains monroe motive deseret party influence envyings lasciviousness ensign happier ringwood combinations scrolls strifes sea charles era 
191	0.02486	courage vision stand firm joshua steadfast faith king immovable strong standing side leader determination face esther ridicule tall abinadi forward 
192	0.1066	trials endure faith adversity suffering end challenges experience job trial afflictions pain lord face overcome things blessings patience sorrow experiences 
193	0.10787	great greatest lives important life man live world mind success good make part made kind act idea person human set 
194	0.11125	book mormon record true joseph moroni plates smith power witness written translated bible records witnesses things sacred angel message ancient 
195	0.12551	young youth men leaders age church generation great parents life women boy activities clean scout priesthood program important adult prepare 
196	0.05284	europe mission germany president german british countries european brother people sister switzerland war city received branch west country france missionaries 
197	0.05982	life body doctor medical day disease die blood physical health doctors death friend precious ill lost leave asked hospital medicine 
198	0.07723	women woman young mother daughters mothers sisters world daughter sister influence tonight good righteous girls dear loves heaven motherhood husband 
199	0.11169	president kimball spencer lee lord harold stake lord’s time general personal romney call leaders tanner temple worthy serve kimball’s god’s 
